Loops and Iteration – Statistical Computing with R
…
✅ Check-ins: 2

1 Iteration across data frame columns with across()

Often we will have to perform the same data wrangling on many variables (e.g., rounding numbers)

diamonds %>%
    mutate(
        carat = round(carat, 1),
        x = round(x, 1),
        y = round(y, 1),
        z = round(z, 1)
    )

# A tibble: 53,940 × 10
   carat cut       color clarity depth table price     x     y     z
   <dbl> <ord>     <ord> <ord>   <dbl> <dbl> <int> <dbl> <dbl> <dbl>
 1   0.2 Ideal     E     SI2      61.5    55   326   4     4     2.4
 2   0.2 Premium   E     SI1      59.8    61   326   3.9   3.8   2.3
 3   0.2 Good      E     VS1      56.9    65   327   4     4.1   2.3
 4   0.3 Premium   I     VS2      62.4    58   334   4.2   4.2   2.6
 5   0.3 Good      J     SI2      63.3    58   335   4.3   4.3   2.8
 6   0.2 Very Good J     VVS2     62.8    57   336   3.9   4     2.5
 7   0.2 Very Good I     VVS1     62.3    57   336   4     4     2.5
 8   0.3 Very Good H     SI1      61.9    55   337   4.1   4.1   2.5
 9   0.2 Fair      E     VS2      65.1    61   337   3.9   3.8   2.5
10   0.2 Very Good H     VS1      59.4    61   338   4     4     2.4
# ℹ 53,930 more rows

dplyr provides the across() function for performing these repeated function calls:

# Option 1: Create our own named function
round_to_one <- function(x) {
    round(x, digits = 1)
}
diamonds %>% 
    mutate(across(.cols = c(carat, x, y, z), 
                  .fns = round_to_one
                  )
           )

# A tibble: 53,940 × 10
   carat cut       color clarity depth table price     x     y     z
   <dbl> <ord>     <ord> <ord>   <dbl> <dbl> <int> <dbl> <dbl> <dbl>
 1   0.2 Ideal     E     SI2      61.5    55   326   4     4     2.4
 2   0.2 Premium   E     SI1      59.8    61   326   3.9   3.8   2.3
 3   0.2 Good      E     VS1      56.9    65   327   4     4.1   2.3
 4   0.3 Premium   I     VS2      62.4    58   334   4.2   4.2   2.6
 5   0.3 Good      J     SI2      63.3    58   335   4.3   4.3   2.8
 6   0.2 Very Good J     VVS2     62.8    57   336   3.9   4     2.5
 7   0.2 Very Good I     VVS1     62.3    57   336   4     4     2.5
 8   0.3 Very Good H     SI1      61.9    55   337   4.1   4.1   2.5
 9   0.2 Fair      E     VS2      65.1    61   337   3.9   3.8   2.5
10   0.2 Very Good H     VS1      59.4    61   338   4     4     2.4
# ℹ 53,930 more rows

# Option 2: Use an "anonymous" or "lambda" function that isn't named
diamonds %>% 
    mutate(across(.cols = c(carat, x, y, z), 
                  .fns = function(x) {round(x, digits = 1)} 
                  )
           )

# A tibble: 53,940 × 10
   carat cut       color clarity depth table price     x     y     z
   <dbl> <ord>     <ord> <ord>   <dbl> <dbl> <int> <dbl> <dbl> <dbl>
 1   0.2 Ideal     E     SI2      61.5    55   326   4     4     2.4
 2   0.2 Premium   E     SI1      59.8    61   326   3.9   3.8   2.3
 3   0.2 Good      E     VS1      56.9    65   327   4     4.1   2.3
 4   0.3 Premium   I     VS2      62.4    58   334   4.2   4.2   2.6
 5   0.3 Good      J     SI2      63.3    58   335   4.3   4.3   2.8
 6   0.2 Very Good J     VVS2     62.8    57   336   3.9   4     2.5
 7   0.2 Very Good I     VVS1     62.3    57   336   4     4     2.5
 8   0.3 Very Good H     SI1      61.9    55   337   4.1   4.1   2.5
 9   0.2 Fair      E     VS2      65.1    61   337   3.9   3.8   2.5
10   0.2 Very Good H     VS1      59.4    61   338   4     4     2.4
# ℹ 53,930 more rows
…
Because map_dbl() only takes one input, so you need to use map2_dbl() instead

Because there is no function named standardize(), so it cannot be applied to the body_mass_g column

body_mass_g is not a data frame so it is not a valid argument for map_dbl()

Thus far in the course, we have used the across() function to apply the same function to multiple columns. For example, if we wanted to apply the standardize() function from above to every numeric column, we could use the following code:

penguins %>% 
  mutate(across(.cols = where(is.numeric), 
                .fns = standardize)
         )

# A tibble: 344 × 8
   species island    bill_length_mm bill_depth_mm flipper_length_mm body_mass_g
   <fct>   <fct>              <dbl>         <dbl>             <dbl>       <dbl>
 1 Adelie  Torgersen         -0.883         0.784            -1.42      -0.563 
 2 Adelie  Torgersen         -0.810         0.126            -1.06      -0.501 
 3 Adelie  Torgersen         -0.663         0.430            -0.421     -1.19  
 4 Adelie  Torgersen         NA            NA                NA         NA     
 5 Adelie  Torgersen         -1.32          1.09             -0.563     -0.937 
 6 Adelie  Torgersen         -0.847         1.75             -0.776     -0.688 
 7 Adelie  Torgersen         -0.920         0.329            -1.42      -0.719 
 8 Adelie  Torgersen         -0.865         1.24             -0.421      0.590 
 9 Adelie  Torgersen         -1.80          0.480            -0.563     -0.906 
10 Adelie  Torgersen         -0.352         1.54             -0.776      0.0602
# ℹ 334 more rows
# ℹ 2 more variables: sex <fct>, year <dbl>
…
